simulation/qsim/SingleCycle.msim.vcd
$comment
	File created using the following command:
		vcd file SingleCycle.msim.vcd -direction
$end
$date
	Fri Jul 05 01:57:06 2024
$end
$version
	ModelSim Version 10.1d
$end
$timescale
	1ps
$end
$scope module instructionPCTest_vlg_vec_tst $end
$var reg 1 ! clk $end
$var reg 1 " resetbar $end
$var wire 1 # newPC [31] $end
$var wire 1 $ newPC [30] $end
$var wire 1 % newPC [29] $end
$var wire 1 & newPC [28] $end
$var wire 1 ' newPC [27] $end
$var wire 1 ( newPC [26] $end
$var wire 1 ) newPC [25] $end
$var wire 1 * newPC [24] $end
$var wire 1 + newPC [23] $end
$var wire 1 , newPC [22] $end
$var wire 1 - newPC [21] $end
$var wire 1 . newPC [20] $end
$var wire 1 / newPC [19] $end
$var wire 1 0 newPC [18] $end
$var wire 1 1 newPC [17] $end
$var wire 1 2 newPC [16] $end
$var wire 1 3 newPC [15] $end
$var wire 1 4 newPC [14] $end
$var wire 1 5 newPC [13] $end
$var wire 1 6 newPC [12] $end
$var wire 1 7 newPC [11] $end
$var wire 1 8 newPC [10] $end
$var wire 1 9 newPC [9] $end
$var wire 1 : newPC [8] $end
$var wire 1 ; newPC [7] $end
$var wire 1 < newPC [6] $end
$var wire 1 = newPC [5] $end
$var wire 1 > newPC [4] $end
$var wire 1 ? newPC [3] $end
$var wire 1 @ newPC [2] $end
$var wire 1 A newPC [1] $end
$var wire 1 B newPC [0] $end
$var wire 1 C PC [31] $end
$var wire 1 D PC [30] $end
$var wire 1 E PC [29] $end
$var wire 1 F PC [28] $end
$var wire 1 G PC [27] $end
$var wire 1 H PC [26] $end
$var wire 1 I PC [25] $end
$var wire 1 J PC [24] $end
$var wire 1 K PC [23] $end
$var wire 1 L PC [22] $end
$var wire 1 M PC [21] $end
$var wire 1 N PC [20] $end
$var wire 1 O PC [19] $end
$var wire 1 P PC [18] $end
$var wire 1 Q PC [17] $end
$var wire 1 R PC [16] $end
$var wire 1 S PC [15] $end
$var wire 1 T PC [14] $end
$var wire 1 U PC [13] $end
$var wire 1 V PC [12] $end
$var wire 1 W PC [11] $end
$var wire 1 X PC [10] $end
$var wire 1 Y PC [9] $end
$var wire 1 Z PC [8] $end
$var wire 1 [ PC [7] $end
$var wire 1 \ PC [6] $end
$var wire 1 ] PC [5] $end
$var wire 1 ^ PC [4] $end
$var wire 1 _ PC [3] $end
$var wire 1 ` PC [2] $end
$var wire 1 a PC [1] $end
$var wire 1 b PC [0] $end
$var wire 1 c sampler $end
$scope module i1 $end
$var wire 1 d gnd $end
$var wire 1 e vcc $end
$var wire 1 f unknown $end
$var tri1 1 g devclrn $end
$var tri1 1 h devpor $end
$var tri1 1 i devoe $end
$var wire 1 j PC[0]~output_o $end
$var wire 1 k PC[1]~output_o $end
$var wire 1 l PC[2]~output_o $end
$var wire 1 m PC[3]~output_o $end
$var wire 1 n PC[4]~output_o $end
$var wire 1 o PC[5]~output_o $end
$var wire 1 p PC[6]~output_o $end
$var wire 1 q PC[7]~output_o $end
$var wire 1 r PC[8]~output_o $end
$var wire 1 s PC[9]~output_o $end
$var wire 1 t PC[10]~output_o $end
$var wire 1 u PC[11]~output_o $end
$var wire 1 v PC[12]~output_o $end
$var wire 1 w PC[13]~output_o $end
$var wire 1 x PC[14]~output_o $end
$var wire 1 y PC[15]~output_o $end
$var wire 1 z PC[16]~output_o $end
$var wire 1 { PC[17]~output_o $end
$var wire 1 | PC[18]~output_o $end
$var wire 1 } PC[19]~output_o $end
$var wire 1 ~ PC[20]~output_o $end
$var wire 1 !! PC[21]~output_o $end
$var wire 1 "! PC[22]~output_o $end
$var wire 1 #! PC[23]~output_o $end
$var wire 1 $! PC[24]~output_o $end
$var wire 1 %! PC[25]~output_o $end
$var wire 1 &! PC[26]~output_o $end
$var wire 1 '! PC[27]~output_o $end
$var wire 1 (! PC[28]~output_o $end
$var wire 1 )! PC[29]~output_o $end
$var wire 1 *! PC[30]~output_o $end
$var wire 1 +! PC[31]~output_o $end
$var wire 1 ,! newPC[0]~output_o $end
$var wire 1 -! newPC[1]~output_o $end
$var wire 1 .! newPC[2]~output_o $end
$var wire 1 /! newPC[3]~output_o $end
$var wire 1 0! newPC[4]~output_o $end
$var wire 1 1! newPC[5]~output_o $end
$var wire 1 2! newPC[6]~output_o $end
$var wire 1 3! newPC[7]~output_o $end
$var wire 1 4! newPC[8]~output_o $end
$var wire 1 5! newPC[9]~output_o $end
$var wire 1 6! newPC[10]~output_o $end
$var wire 1 7! newPC[11]~output_o $end
$var wire 1 8! newPC[12]~output_o $end
$var wire 1 9! newPC[13]~output_o $end
$var wire 1 :! newPC[14]~output_o $end
$var wire 1 ;! newPC[15]~output_o $end
$var wire 1 <! newPC[16]~output_o $end
$var wire 1 =! newPC[17]~output_o $end
$var wire 1 >! newPC[18]~output_o $end
$var wire 1 ?! newPC[19]~output_o $end
$var wire 1 @! newPC[20]~output_o $end
$var wire 1 A! newPC[21]~output_o $end
$var wire 1 B! newPC[22]~output_o $end
$var wire 1 C! newPC[23]~output_o $end
$var wire 1 D! newPC[24]~output_o $end
$var wire 1 E! newPC[25]~output_o $end
$var wire 1 F! newPC[26]~output_o $end
$var wire 1 G! newPC[27]~output_o $end
$var wire 1 H! newPC[28]~output_o $end
$var wire 1 I! newPC[29]~output_o $end
$var wire 1 J! newPC[30]~output_o $end
$var wire 1 K! newPC[31]~output_o $end
$var wire 1 L! clk~input_o $end
$var wire 1 M! resetbar~input_o $end
$var wire 1 N! PCReg|gen_dFF:0:dFF_inst|int_q~0_combout $end
$var wire 1 O! PCReg|gen_dFF:1:dFF_inst|int_q~0_combout $end
$var wire 1 P! PCReg|gen_dFF:2:dFF_inst|int_q~0_combout $end
$var wire 1 Q! PCReg|gen_dFF:3:dFF_inst|int_q~0_combout $end
$var wire 1 R! PCAdder|gen_Add:4:Add_inst|S~combout $end
$var wire 1 S! PCReg|gen_dFF:4:dFF_inst|int_q~0_combout $end
$var wire 1 T! PCAdder|gen_Add:5:Add_inst|S~combout $end
$var wire 1 U! PCReg|gen_dFF:5:dFF_inst|int_q~0_combout $end
$var wire 1 V! PCAdder|gen_Add:5:Add_inst|Cout~0_combout $end
$var wire 1 W! PCReg|gen_dFF:6:dFF_inst|int_q~0_combout $end
$var wire 1 X! PCAdder|gen_Add:7:Add_inst|S~combout $end
$var wire 1 Y! PCReg|gen_dFF:7:dFF_inst|int_q~0_combout $end
$var wire 1 Z! PCAdder|gen_Add:8:Add_inst|S~combout $end
$var wire 1 [! PCReg|gen_dFF:8:dFF_inst|int_q~0_combout $end
$var wire 1 \! PCAdder|gen_Add:8:Add_inst|Cout~0_combout $end
$var wire 1 ]! PCReg|gen_dFF:9:dFF_inst|int_q~0_combout $end
$var wire 1 ^! PCAdder|gen_Add:10:Add_inst|S~combout $end
$var wire 1 _! PCReg|gen_dFF:10:dFF_inst|int_q~0_combout $end
$var wire 1 `! PCAdder|gen_Add:11:Add_inst|S~combout $end
$var wire 1 a! PCReg|gen_dFF:11:dFF_inst|int_q~0_combout $end
$var wire 1 b! PCAdder|gen_Add:11:Add_inst|Cout~0_combout $end
$var wire 1 c! PCReg|gen_dFF:12:dFF_inst|int_q~0_combout $end
$var wire 1 d! PCAdder|gen_Add:13:Add_inst|S~combout $end
$var wire 1 e! PCReg|gen_dFF:13:dFF_inst|int_q~0_combout $end
$var wire 1 f! PCAdder|gen_Add:14:Add_inst|S~combout $end
$var wire 1 g! PCReg|gen_dFF:14:dFF_inst|int_q~0_combout $end
$var wire 1 h! PCAdder|gen_Add:14:Add_inst|Cout~0_combout $end
$var wire 1 i! PCReg|gen_dFF:15:dFF_inst|int_q~0_combout $end
$var wire 1 j! PCAdder|gen_Add:16:Add_inst|S~combout $end
$var wire 1 k! PCReg|gen_dFF:16:dFF_inst|int_q~0_combout $end
$var wire 1 l! PCAdder|gen_Add:17:Add_inst|S~combout $end
$var wire 1 m! PCReg|gen_dFF:17:dFF_inst|int_q~0_combout $end
$var wire 1 n! PCAdder|gen_Add:17:Add_inst|Cout~0_combout $end
$var wire 1 o! PCReg|gen_dFF:18:dFF_inst|int_q~0_combout $end
$var wire 1 p! PCAdder|gen_Add:19:Add_inst|S~combout $end
$var wire 1 q! PCReg|gen_dFF:19:dFF_inst|int_q~0_combout $end
$var wire 1 r! PCAdder|gen_Add:20:Add_inst|S~combout $end
$var wire 1 s! PCReg|gen_dFF:20:dFF_inst|int_q~0_combout $end
$var wire 1 t! PCAdder|gen_Add:20:Add_inst|Cout~0_combout $end
$var wire 1 u! PCReg|gen_dFF:21:dFF_inst|int_q~0_combout $end
$var wire 1 v! PCAdder|gen_Add:22:Add_inst|S~combout $end
$var wire 1 w! PCReg|gen_dFF:22:dFF_inst|int_q~0_combout $end
$var wire 1 x! PCAdder|gen_Add:23:Add_inst|S~combout $end
$var wire 1 y! PCReg|gen_dFF:23:dFF_inst|int_q~0_combout $end
$var wire 1 z! PCAdder|gen_Add:23:Add_inst|Cout~0_combout $end
$var wire 1 {! PCReg|gen_dFF:24:dFF_inst|int_q~0_combout $end
$var wire 1 |! PCAdder|gen_Add:25:Add_inst|S~combout $end
$var wire 1 }! PCReg|gen_dFF:25:dFF_inst|int_q~0_combout $end
$var wire 1 ~! PCAdder|gen_Add:26:Add_inst|S~combout $end
$var wire 1 !" PCReg|gen_dFF:26:dFF_inst|int_q~0_combout $end
$var wire 1 "" PCAdder|gen_Add:26:Add_inst|Cout~0_combout $end
$var wire 1 #" PCReg|gen_dFF:27:dFF_inst|int_q~0_combout $end
$var wire 1 $" PCAdder|gen_Add:28:Add_inst|S~combout $end
$var wire 1 %" PCReg|gen_dFF:28:dFF_inst|int_q~0_combout $end
$var wire 1 &" PCAdder|gen_Add:29:Add_inst|S~combout $end
$var wire 1 '" PCReg|gen_dFF:29:dFF_inst|int_q~0_combout $end
$var wire 1 (" PCAdder|gen_Add:29:Add_inst|Cout~0_combout $end
$var wire 1 )" PCReg|gen_dFF:30:dFF_inst|int_q~0_combout $end
$var wire 1 *" PCAdder|gen_Add:31:Add_inst|S~combout $end
$var wire 1 +" PCReg|gen_dFF:31:dFF_inst|int_q~0_combout $end
$var wire 1 ," PCAdder|gen_Add:3:Add_inst|S~combout $end
$var wire 1 -" PCAdder|gen_Add:6:Add_inst|S~combout $end
$var wire 1 ." PCAdder|gen_Add:9:Add_inst|S~combout $end
$var wire 1 /" PCAdder|gen_Add:12:Add_inst|S~combout $end
$var wire 1 0" PCAdder|gen_Add:15:Add_inst|S~combout $end
$var wire 1 1" PCAdder|gen_Add:18:Add_inst|S~combout $end
$var wire 1 2" PCAdder|gen_Add:21:Add_inst|S~combout $end
$var wire 1 3" PCAdder|gen_Add:24:Add_inst|S~combout $end
$var wire 1 4" PCAdder|gen_Add:27:Add_inst|S~combout $end
$var wire 1 5" PCAdder|gen_Add:30:Add_inst|S~combout $end
$upscope $end
$upscope $end
$enddefinitions $end
#0
$dumpvars
0!
0"
xB
xA
x@
x?
x>
x=
x<
x;
x:
x9
x8
x7
x6
x5
x4
x3
x2
x1
x0
x/
x.
x-
x,
x+
x*
x)
x(
x'
x&
x%
x$
x#
xb
xa
x`
x_
x^
x]
x\
x[
xZ
xY
xX
xW
xV
xU
xT
xS
xR
xQ
xP
xO
xN
xM
xL
xK
xJ
xI
xH
xG
xF
xE
xD
xC
xc
0d
1e
xf
1g
1h
1i
xj
xk
xl
xm
xn
xo
xp
xq
xr
xs
xt
xu
xv
xw
xx
xy
xz
x{
x|
x}
x~
x!!
x"!
x#!
x$!
x%!
x&!
x'!
x(!
x)!
x*!
x+!
x,!
x-!
x.!
x/!
x0!
x1!
x2!
x3!
x4!
x5!
x6!
x7!
x8!
x9!
x:!
x;!
x<!
x=!
x>!
x?!
x@!
xA!
xB!
xC!
xD!
xE!
xF!
xG!
xH!
xI!
xJ!
xK!
0L!
0M!
xN!
xO!
xP!
xQ!
xR!
xS!
xT!
xU!
xV!
xW!
xX!
xY!
xZ!
x[!
x\!
x]!
x^!
x_!
x`!
xa!
xb!
xc!
xd!
xe!
xf!
xg!
xh!
xi!
xj!
xk!
xl!
xm!
xn!
xo!
xp!
xq!
xr!
xs!
xt!
xu!
xv!
xw!
xx!
xy!
xz!
x{!
x|!
x}!
x~!
x!"
x""
x#"
x$"
x%"
x&"
x'"
x("
x)"
x*"
x+"
x,"
x-"
x."
x/"
x0"
x1"
x2"
x3"
x4"
x5"
$end
#976
0u!
#1053
0w!
#1055
0y!
0{!
0}!
0!"
#1143
0#"
#1145
0%"
#1161
0'"
0)"
#1163
0+"
#1541
0~!
#1606
0v!
#1636
0z!
#1645
0""
#1678
0x!
#1745
0("
#1751
0g!
#1752
0_!
#1754
0a!
#1755
0O!
0e!
#1766
0&"
#1772
0$"
#1796
0*"
#1827
0|!
#1910
0]!
#1912
0c!
#2022
0i!
#2023
0k!
0m!
0q!
#2027
0s!
#2036
0S!
#2037
0P!
#2042
0Y!
#2043
0[!
#2044
0U!
#2045
0N!
#2105
0h!
#2107
0b!
#2127
03"
#2167
0o!
#2184
0W!
#2185
0Q!
#2215
05"
#2278
0d!
#2374
0n!
#2381
0t!
#2387
0f!
#2391
0`!
#2426
0^!
#2533
0l!
#2552
0R!
#2555
0p!
#2597
0/"
#2628
0V!
#2636
0\!
#2653
0r!
#2657
0T!
#2677
0j!
#2698
0,"
#2781
0Z!
#2859
0X!
#2871
01"
#2990
04"
#3121
0-"
#3156
00"
#3960
02"
#3977
0%!
0I
#3995
0&!
0H
#4093
0)!
0E
#4102
0+!
0C
#4152
0#!
0K
#4178
0."
#4291
0"!
0L
#4299
0$!
0J
#4388
0'!
0G
#4419
0(!
0F
#4489
0*!
0D
#4541
0B!
0,
#4757
0E!
0)
#4797
0C!
0+
#4814
0w
0U
#4914
0H!
0&
#4936
0s
0Y
#4963
0u
0W
#5015
0}
0O
#5020
0K!
0#
#5031
0{
0Q
#5056
0n
0^
#5058
0r
0Z
#5065
0~
0N
#5153
0-!
0A
#5163
0t
0X
#5173
0k
0a
#5178
0x
0T
#5213
0z
0R
#5238
0q
0[
#5318
0D!
0*
#5338
0v
0V
#5378
0y
0S
#5438
0|
0P
#5445
06!
08
#5447
0j
0b
#5487
0,!
0B
#5511
0J!
0$
#5514
0!!
0M
#5605
0m
0_
#5619
0:!
04
#5662
09!
05
#5684
01!
0=
#5688
0/!
0?
#5692
0@!
0.
#5788
08!
06
#5794
00!
0>
#5823
07!
07
#5834
0?!
0/
#5837
0p
0\
#5881
0<!
02
#5983
04!
0:
#6032
0G!
0'
#6065
0F!
0(
#6096
03!
0;
#6117
02!
0<
#6143
0=!
01
#6149
0;!
03
#6183
0>!
00
#6271
1.!
1@
#6273
0I!
0%
#6419
0o
0]
#7175
05!
09
#7198
0A!
0-
#7646
0l
0`
#10000
1"
0c
#10606
1M!
#11611
1u!
#11675
1{!
1}!
#11676
1y!
1!"
#11679
1w!
#11758
1%"
1+"
#11761
1'"
#11762
1#"
1)"
#12102
1$"
#12103
15"
#12146
1|!
#12165
13"
#12241
12"
#12263
1x!
#12265
1~!
#12274
1v!
#12336
1*"
#12349
1&"
#12368
14"
#12434
1a!
#12436
1_!
1g!
#12437
1O!
1e!
#12583
1]!
#12588
1c!
#12722
1m!
1q!
#12723
1i!
#12724
1k!
#12728
1s!
#12758
1P!
#12759
1S!
#12765
1N!
1U!
1Y!
#12766
1[!
#12767
1`!
#12770
1f!
#12876
1o!
#12920
1Q!
1W!
#12930
1/"
#13033
1d!
#13035
1^!
#13053
1."
#13056
1l!
#13064
1r!
#13194
10"
#13233
11"
#13277
1-"
#13319
1p!
#13320
1j!
#13355
1Z!
#13389
1V!
#13496
1X!
#13836
0-"
#13838
0X!
0Z!
1\!
#14612
1%!
1I
#14637
1&!
1H
#14713
1)!
1E
#14714
1+!
1C
#14792
1#!
1K
#14915
1"!
1L
#14916
1$!
1J
#14998
1'!
1G
#15000
1!
1c
#15022
1(!
1F
#15093
1*!
1D
#15097
1E!
1)
#15228
1B!
1,
#15250
1H!
1&
#15278
1b!
#15322
0`!
#15351
0^!
#15352
0."
#15382
1D!
1*
#15402
1C!
1+
#15416
1J!
1$
#15450
1G!
1'
#15490
1A!
1-
#15538
1w
1U
#15572
1K!
1#
#15606
1L!
#15661
1s
1Y
#15706
1u
1W
#15723
0/"
#15725
0f!
1h!
#15728
0d!
#15761
1}
1O
#15777
1{
1Q
#15809
1~
1N
#15824
1n
1^
#15825
1r
1Z
#15898
1-!
1A
#15912
1t
1X
#15918
1k
1a
#15935
1x
1T
#15962
1z
1R
#16015
1q
1[
#16061
1:!
14
#16080
1v
1V
#16121
1y
1S
#16146
1@!
1.
#16177
18!
16
#16203
1!!
1|
1M
1P
#16232
1;!
13
#16239
1j
1b
#16279
1,!
1B
#16398
1m
1_
#16482
19!
15
#16575
1p
1\
#16578
1<!
12
#16586
1>!
10
#16644
1?!
1/
#16701
1F!
1(
#16703
1=!
11
#16751
00"
#16752
0j!
#16760
1I!
1%
#16976
1n!
#17017
0l!
#17061
0.!
0@
#17106
1o
1]
#17113
0P!
#17160
0S!
#17167
0Y!
#17168
0U!
#17169
0[!
#17175
0W!
#17176
0Q!
#17279
0c!
#17283
0]!
#17420
1t!
#17423
0r!
#17426
0p!
#17427
01"
#17544
0a!
#17561
0\!
#17569
1-"
#17570
1W!
#17571
0e!
#17578
0_!
#17579
0g!
#17633
1P!
#17652
1/"
#17655
1d!
#17752
0V!
#17768
0s!
#17769
0q!
#17792
0o!
#17795
1]!
#17796
0b!
#17798
1."
#17800
1^!
#17837
0i!
#17843
0m!
#17873
0k!
#17896
1c!
#17917
0W!
0-"
#17982
1e!
#18008
0h!
#18114
0P!
#18122
0t!
#18124
1,"
#18128
1_!
#18129
1Q!
#18185
1o!
11"
#18194
0n!
#18264
0]!
0."
#18351
1l
1`
#18354
10"
#18477
1i!
#18634
1P!
#18957
0:!
04
#19115
0P!
0,"
#19120
0Q!
#19127
1R!
#19454
1S!
#19635
1P!
#19638
0R!
#19956
0<!
02
#19980
0S!
#20050
1R!
#20116
0P!
#20126
1,"
#20131
1Q!
#20184
0r
0Z
#20309
0s
0Y
#20363
0q
0[
#20377
1S!
#20462
0@!
0.
#20627
0=!
01
#20636
1P!
#20705
0?!
0/
#20753
0u
0W
#20761
0}
0O
#20806
0~
0N
#20851
0{
0Q
#20865
16!
18
#21006
0x
0T
#21063
0z
0R
#21117
0P!
0,"
#21119
0R!
#21122
0Q!
#21127
1T!
#21456
1U!
#21461
0S!
#21543
0o
0]
#21570
0p
0\
#21637
1P!
#21639
1R!
#21641
0T!
#21966
1S!
#21985
0U!
#22045
1T!
#22118
0P!
#22124
0R!
#22128
1,"
#22133
1Q!
#22374
1U!
#22466
0S!
#22638
1P!
#22643
1R!
#22970
1S!
#23119
0P!
0,"
#23124
0Q!
#23355
10!
1>
#23639
1P!
#24120
0P!
#24130
1,"
#24135
1Q!
#24200
11!
1=
#24640
1P!
#25121
0P!
0T!
0,"
#25123
0R!
#25126
0Q!
#25132
1V!
#25465
0S!
0U!
#25581
1-"
#25582
1W!
#25641
1P!
#25642
0V!
#25643
1R!
#25644
1T!
#25797
1o
1]
#25970
1S!
#25973
1U!
#26111
0T!
#26122
0P!
#26128
0R!
#26132
1,"
#26137
1Q!
#26455
0U!
#26470
0S!
#26642
1P!
1T!
#26647
1R!
#26971
1U!
#26974
1S!
#27101
0T!
#27123
0P!
0,"
#27128
0Q!
#27445
0U!
#27643
1P!
#27646
1T!
#27975
1U!
#28091
0T!
#28124
0P!
#28134
1,"
#28139
1Q!
#28148
01!
0=
#28435
0U!
#28625
12!
1<
#28644
1P!
1T!
#28973
1U!
#29125
0P!
0,"
#29127
0R!
#29130
0Q!
#29237
1p
1\
#29469
0S!
#29645
1P!
#29647
1R!
#29974
1S!
#30000
0!
0c
#30126
0P!
#30132
0R!
#30136
1,"
#30141
1Q!
#30474
0S!
#30646
1P!
#30651
1R!
#30771
0L!
#30978
1S!
#31127
0P!
0,"
#31132
0Q!
#31647
1P!
#31717
11!
1=
#32138
1,"
#32304
1Y!
1[!
#32321
1Q!
#32393
1]!
#32626
1a!
#32649
1g!
#32789
0,"
#32790
1V!
#32793
0R!
#32794
0T!
#32863
1."
#32893
1Z!
#32926
1m!
#32944
1k!
#32945
1q!
1s!
#32959
1`!
#32983
1f!
#33237
0-"
#33239
0Z!
1\!
#33260
1l!
#33281
1r!
#33540
1j!
#33542
1p!
#34679
1b!
#34723
0`!
#34752
0^!
#34753
0."
#35124
0/"
#35126
0f!
1h!
#35129
0d!
#35363
1r
1Z
#35471
1s
1Y
#35554
1q
1[
#35821
01!
0=
#35898
1u
1W
#35981
1{
1Q
#35984
1}
1O
#36026
1~
1N
#36035
00!
0>
#36148
1x
1T
#36152
00"
#36153
0j!
#36182
1z
1R
#36233
02!
0<
#36363
1@!
1.
#36377
1n!
#36418
0l!
#36821
1t!
#36824
0r!
#36827
0p!
#36828
01"
#36867
1?!
1/
#36907
1=!
11
#37771
06!
08
#38315
08!
06
#38378
02"
#38379
0v!
#38384
0x!
1z!
#38513
09!
05
#38828
03"
#38829
1""
#38831
0|!
#38834
0~!
#39145
0;!
03
#39829
0&"
#39842
1("
#39863
0@!
0.
#40028
0=!
01
#40089
0$"
#40106
0?!
0/
#40125
04"
#40140
0>!
00
#40272
05"
#40275
0*"
#41314
0B!
0,
#41503
0C!
0+
#41616
0A!
0-
#41761
0E!
0)
#42019
0D!
0*
#43167
0G!
0'
#43231
0H!
0&
#43358
0F!
0(
#43499
0K!
0#
#43568
0J!
0$
#44336
0I!
0%
#45000
1!
1c
#45606
1L!
#46544
0}!
#46547
0w!
#46552
0y!
0{!
0!"
#46567
0+"
#46571
0'"
#46573
0)"
#46726
0u!
#46742
0%"
#46748
0#"
#46945
15"
#46948
1)"
#47068
1{!
13"
#47113
0P!
#47123
1$"
#47133
0z!
#47142
0""
#47155
0("
#47160
0S!
#47167
0Y!
#47168
0U!
#47169
0[!
#47175
0W!
#47176
0Q!
#47193
1v!
#47279
05"
0c!
#47280
0)"
#47283
0]!
#47291
1*"
#47356
0v!
#47366
12"
#47367
1u!
#47377
0$"
#47381
1#"
#47384
14"
#47544
0a!
#47561
0\!
#47563
1%"
#47569
1-"
#47570
1W!
#47571
0e!
#47578
0_!
#47579
0g!
#47617
1+"
#47628
0*"
#47633
1P!
#47652
1/"
#47655
1d!
#47752
0V!
#47792
0o!
#47795
1]!
#47796
0b!
#47798
1."
#47800
1^!
#47837
0i!
#47843
0m!
#47850
0%"
#47866
0s!
#47868
0q!
#47873
0k!
#47896
1c!
#47917
0W!
0-"
#47969
0+"
#47981
0#"
#47982
1e!
#47985
0u!
#47986
04"
#47987
02"
#47996
1v!
#48008
0h!
#48114
0P!
#48124
1,"
#48128
1_!
#48129
1Q!
#48185
1o!
11"
#48194
0n!
#48195
1*"
#48200
1#"
#48220
0t!
#48264
0]!
0."
#48323
1w!
#48354
10"
#48477
1i!
#48479
14"
#48521
1+"
#48602
0*"
#48625
12"
#48626
1u!
#48634
1P!
#48943
0+"
#49099
1*"
#49115
0P!
0,"
#49120
0Q!
#49127
1R!
#49244
0u!
#49245
0v!
#49246
02"
#49254
1x!
#49425
1+"
#49454
1S!
#49466
0%!
0I
#49492
0&!
0H
#49503
0)!
0E
#49576
0*"
#49581
1y!
#49588
0w!
#49635
1P!
#49638
0R!
#49649
0#!
0K
#49800
1v!
#49807
0x!
#49917
0+"
#49980
0S!
#50003
1*"
#50016
0(!
0F
#50050
1R!
#50116
0P!
#50126
1,"
#50127
1w!
#50131
1Q!
#50149
0y!
#50168
1x!
#50184
0r
0Z
#50247
0v!
#50285
1D!
1*
#50309
0s
0Y
#50329
1+"
#50363
0q
0[
#50377
1S!
#50495
1y!
#50550
0*"
#50590
0w!
#50608
0*!
0D
#50636
1P!
#50722
1v!
#50753
0u
0W
#50851
0{
0Q
#50860
0}
0O
#50865
16!
18
#50891
0+"
#50899
18!
16
#50904
0~
0N
#50907
1*"
#51006
0x
0T
#51049
1w!
#51063
0z
0R
#51104
19!
15
#51117
0P!
0,"
#51119
0R!
#51122
0Q!
#51127
1T!
#51233
1+"
#51249
0v!
#51392
1;!
13
#51456
1U!
#51461
0S!
#51538
1>!
10
#51543
0o
0]
#51561
1G!
1'
#51570
0p
0\
#51592
0w!
#51637
1P!
#51639
1R!
#51641
0T!
#51644
1v!
#51966
1S!
#51971
1w!
#51985
0U!
#52045
1T!
#52118
0P!
#52124
0R!
#52128
1,"
#52133
1Q!
#52374
1U!
#52466
0S!
#52638
1P!
#52643
1R!
#52970
1S!
#53119
0P!
0,"
#53124
0Q!
#53307
1C!
1+
#53355
10!
1>
#53611
1#!
1K
#53639
1P!
#53782
0!!
0M
#54120
0P!
#54130
1,"
#54135
1Q!
#54143
1K!
1#
#54200
11!
1=
#54598
1B!
1,
#54640
1P!
#55121
0P!
0T!
0,"
#55123
0R!
#55126
0Q!
#55132
1V!
#55465
0S!
0U!
#55581
1-"
#55582
1W!
#55641
1P!
#55642
0V!
#55643
1R!
#55644
1T!
#55797
1o
1]
#55970
1S!
#55973
1U!
#56111
0T!
#56122
0P!
#56128
0R!
#56132
1,"
#56137
1Q!
#56455
0U!
#56470
0S!
#56642
1P!
1T!
#56647
1R!
#56971
1U!
#56974
1S!
#57101
0T!
#57123
0P!
0,"
#57128
0Q!
#57445
0U!
#57643
1P!
#57646
1T!
#57975
1U!
#58091
0T!
#58124
0P!
#58134
1,"
#58139
1Q!
#58148
01!
0=
#58435
0U!
#58625
12!
1<
#58644
1P!
1T!
#58973
1U!
#59125
0P!
0,"
#59127
0R!
#59130
0Q!
#59237
1p
1\
#59469
0S!
#59645
1P!
#59647
1R!
#59974
1S!
#60000
0!
0c
#60126
0P!
#60132
0R!
#60136
1,"
#60141
1Q!
#60474
0S!
#60646
1P!
#60651
1R!
#60771
0L!
#60978
1S!
#61127
0P!
0,"
#61132
0Q!
#61647
1P!
#61691
1}!
#61696
1!"
#61717
11!
1=
#61738
1'"
#61741
1)"
#61867
1u!
#61909
1%"
#62082
15"
#62138
1,"
#62162
1|!
#62253
1$"
#62285
1~!
#62304
1Y!
1[!
#62321
1Q!
#62326
1&"
#62393
1]!
#62497
12"
#62626
1a!
#62649
1g!
#62789
0,"
#62790
1V!
#62793
0R!
#62794
0T!
#62863
1."
#62893
1Z!
#62926
1m!
#62944
1k!
#62945
1q!
1s!
#62959
1`!
#62983
1f!
#63237
0-"
#63239
0Z!
1\!
#63260
1l!
#63281
1r!
#63540
1j!
#63542
1p!
#64628
1%!
1I
#64657
1&!
1H
#64679
1b!
#64690
1)!
1E
#64723
0`!
#64752
0^!
#64753
0."
#65072
1*!
1D
#65113
1E!
1)
#65124
0/"
#65126
0f!
1h!
#65129
0d!
#65173
1(!
1F
#65363
1r
1Z
#65395
1J!
1$
#65401
1H!
1&
#65471
1s
1Y
#65554
1q
1[
#65746
1A!
1-
#65821
01!
0=
#65898
1u
1W
#65981
1{
1Q
#65984
1}
1O
#66026
1~
1N
#66035
00!
0>
#66148
1x
1T
#66152
00"
#66153
0j!
#66182
1z
1R
#66233
02!
0<
#66363
1@!
1.
#66377
1n!
#66418
0l!
#66459
1!!
1M
#66721
1F!
1(
#66737
1I!
1%
#66821
1t!
#66824
0r!
#66827
0p!
#66828
01"
#66867
1?!
1/
#66907
1=!
11
#67771
06!
08
#68315
08!
06
#68378
02"
#68379
0v!
#68384
0x!
1z!
#68513
09!
05
#68828
03"
#68829
1""
#68831
0|!
#68834
0~!
#69145
0;!
03
#69829
0&"
#69842
1("
#69863
0@!
0.
#70028
0=!
01
#70089
0$"
#70106
0?!
0/
#70125
04"
#70140
0>!
00
#70272
05"
#70275
0*"
#71314
0B!
0,
#71503
0C!
0+
#71616
0A!
0-
#71761
0E!
0)
#72019
0D!
0*
#73167
0G!
0'
#73231
0H!
0&
#73358
0F!
0(
#73499
0K!
0#
#73568
0J!
0$
#74336
0I!
0%
#75000
1!
1c
#75606
1L!
#76544
0}!
#76547
0w!
#76552
0y!
0{!
0!"
#76567
0+"
#76571
0'"
#76573
0)"
#76726
0u!
#76742
0%"
#76748
0#"
#76945
15"
#76948
1)"
#77068
1{!
13"
#77113
0P!
#77123
1$"
#77133
0z!
#77142
0""
#77155
0("
#77160
0S!
#77167
0Y!
#77168
0U!
#77169
0[!
#77175
0W!
#77176
0Q!
#77193
1v!
#77279
05"
0c!
#77280
0)"
#77283
0]!
#77291
1*"
#77356
0v!
#77366
12"
#77367
1u!
#77377
0$"
#77381
1#"
#77384
14"
#77544
0a!
#77561
0\!
#77563
1%"
#77569
1-"
#77570
1W!
#77571
0e!
#77578
0_!
#77579
0g!
#77617
1+"
#77628
0*"
#77633
1P!
#77652
1/"
#77655
1d!
#77752
0V!
#77792
0o!
#77795
1]!
#77796
0b!
#77798
1."
#77800
1^!
#77837
0i!
#77843
0m!
#77850
0%"
#77866
0s!
#77868
0q!
#77873
0k!
#77896
1c!
#77917
0W!
0-"
#77969
0+"
#77981
0#"
#77982
1e!
#77985
0u!
#77986
04"
#77987
02"
#77996
1v!
#78008
0h!
#78114
0P!
#78124
1,"
#78128
1_!
#78129
1Q!
#78185
1o!
11"
#78194
0n!
#78195
1*"
#78200
1#"
#78220
0t!
#78264
0]!
0."
#78323
1w!
#78354
10"
#78477
1i!
#78479
14"
#78521
1+"
#78602
0*"
#78625
12"
#78626
1u!
#78634
1P!
#78943
0+"
#79099
1*"
#79115
0P!
0,"
#79120
0Q!
#79127
1R!
#79244
0u!
#79245
0v!
#79246
02"
#79254
1x!
#79425
1+"
#79454
1S!
#79466
0%!
0I
#79492
0&!
0H
#79503
0)!
0E
#79576
0*"
#79581
1y!
#79588
0w!
#79635
1P!
